Raw Recordings EDA
…
Code

error_check

# A tibble: 15,339 × 22
# Groups:   file [155]
   file           utterance session tune  take  timepoint    hz semitone_differ…
   <chr>          <chr>     <chr>   <fct> <chr>     <dbl> <dbl>            <dbl>
 1 evansville_01… evansvil… 01      HHH   001      0       85.2          -0.112 
 2 evansville_01… evansvil… 01      HHH   001      0.0100  85.5          -0.0609
 3 evansville_01… evansvil… 01      HHH   001      0.0200  86.1           0.0582
 4 evansville_01… evansvil… 01      HHH   001      0.0300  85.9           0.0263
 5 evansville_01… evansvil… 01      HHH   001      0.0400  85.8           0     
 6 evansville_01… evansvil… 01      HHH   001      0.05    86.0           0.0367
 7 evansville_01… evansvil… 01      HHH   001      0.06    86.1           0.0729
 8 evansville_01… evansvil… 01      HHH   001      0.07    85.9           0.0330
 9 evansville_01… evansvil… 01      HHH   001      0.08    85.3          -0.101 
10 evansville_01… evansvil… 01      HHH   001      0.09    84.4          -0.288 
# … with 15,329 more rows, and 14 more variables: semitones_from <dbl>,
#   erb <dbl>, is_nuclear <lgl>, hz_runmed <dbl>, timepoint_norm <dbl>,
#   wordset <chr>, timepoint_next <dbl>, hz_next <dbl>, st_diff <dbl>,
#   time_diff_ms <dbl>, error <lgl>, pulse_i <int>, ratio <dbl>,
#   multiplier_error <lgl>
…
# A tibble: 20,932 × 22
# Groups:   file [193]
   file           utterance session tune  take  timepoint    hz semitone_differ…
   <chr>          <chr>     <chr>   <fct> <chr>     <dbl> <dbl>            <dbl>
 1 maryland_02_H… maryland  02      HLL   001      0       83.0           -0.260
 2 maryland_02_H… maryland  02      HLL   001      0.0100  84.2            0    
 3 maryland_02_H… maryland  02      HLL   001      0.0200  85.8            0.313
 4 maryland_02_H… maryland  02      HLL   001      0.0300  86.3            0.414
 5 maryland_02_H… maryland  02      HLL   001      0.04    82.7           -0.312
 6 maryland_02_H… maryland  02      HLL   001      0.05    82.7           -0.326
 7 maryland_02_H… maryland  02      HLL   001      0.06    82.5           -0.352
 8 maryland_02_H… maryland  02      HLL   001      0.07    82.5           -0.365
 9 maryland_02_H… maryland  02      HLL   001      0.08    82.8           -0.291
10 maryland_02_H… maryland  02      HLL   001      0.09    83.5           -0.143
# … with 20,922 more rows, and 14 more variables: semitones_from <dbl>,
#   erb <dbl>, is_nuclear <lgl>, hz_runmed <dbl>, timepoint_norm <dbl>,
#   wordset <chr>, timepoint_next <dbl>, hz_next <dbl>, st_diff <dbl>,
#   time_diff_ms <dbl>, error <lgl>, pulse_i <int>, ratio <dbl>,
#   multiplier_error <lgl>
…
# A tibble: 23,901 × 22
# Groups:   file [223]
   file           utterance session tune  take  timepoint    hz semitone_differ…
   <chr>          <chr>     <chr>   <fct> <chr>     <dbl> <dbl>            <dbl>
 1 branning_01_H… branning  01      HHH   001      0      102.             0.357
 2 branning_01_H… branning  01      HHH   001      0.0100 101.             0.121
 3 branning_01_H… branning  01      HHH   001      0.0200 100.             0    
 4 branning_01_H… branning  01      HHH   001      0.03    99.5           -0.124
 5 branning_01_H… branning  01      HHH   001      0.04    98.9           -0.227
 6 branning_01_H… branning  01      HHH   001      0.05    97.1           -0.546
 7 branning_01_H… branning  01      HHH   001      0.06    95.9           -0.772
 8 branning_01_H… branning  01      HHH   001      0.07    95.3           -0.883
 9 branning_01_H… branning  01      HHH   001      0.08    94.6           -0.996
10 branning_01_H… branning  01      HHH   001      0.09    93.9           -1.14 
# … with 23,891 more rows, and 14 more variables: semitones_from <dbl>,
#   erb <dbl>, is_nuclear <lgl>, hz_runmed <dbl>, timepoint_norm <dbl>,
#   wordset <chr>, timepoint_next <dbl>, hz_next <dbl>, st_diff <dbl>,
#   time_diff_ms <dbl>, error <lgl>, pulse_i <int>, ratio <dbl>,
#   multiplier_error <lgl>
…
